<svg width="30" height="112" viewBox="0 0 30 112" fill="none" xmlns="http://www.w3.org/2000/svg">
<path d="M13.6773 0.466419L0.677275 11.4672C-0.116565 12.1543 -0.248658 13.4903 0.473822 14.2957C1.1749 15.0773 2.50874 15.1861 3.30228 14.4986L12.9898 6.40422V110C12.9898 111.105 13.8852 112 14.9898 112C16.0944 112 16.9898 111.105 16.9898 110V6.40422L26.6773 14.4986C27.4708 15.1861 28.7981 15.0713 29.5057 14.2957C30.2477 13.4824 30.0961 12.1543 29.3023 11.4672L16.3023 0.466419C15.2588 -0.213281 14.4892 -0.0948514 13.6773 0.466419Z" transform="translate(0 112) scale(1 -1)" fill="#DFDFDF"/>
</svg>
