<svg width="113" height="41" viewBox="0 0 113 41" fill="none" xmlns="http://www.w3.org/2000/svg">
<path d="M19.296 28.7265C15.912 28.7265 13.1558 31.4803 13.1558 34.8641C13.1558 38.2479 15.9111 41 19.296 41C22.6833 41 25.4361 38.2479 25.4361 34.8641C25.4361 31.482 22.6843 28.7265 19.296 28.7265ZM19.296 38.7203C17.1694 38.7203 15.4381 36.9894 15.4381 34.864C15.4381 32.7387 17.1685 31.0077 19.296 31.0077C21.4242 31.0077 23.1554 32.7368 23.1554 34.864C23.1554 36.9894 21.4251 38.7203 19.296 38.7203ZM94.7382 28.7265C91.3519 28.7265 88.5972 31.4803 88.5972 34.8641C88.5972 38.2479 91.3511 41 94.7382 41C98.1253 41 100.878 38.2479 100.878 34.8641C100.878 31.482 98.1236 28.7265 94.7382 28.7265ZM94.7382 38.7203C92.6104 38.7203 90.8783 36.9894 90.8783 34.864C90.8783 32.7387 92.6086 31.0077 94.7382 31.0077C96.8643 31.0077 98.5964 32.7368 98.5964 34.864C98.5948 36.9894 96.8645 38.7203 94.7382 38.7203ZM109.718 26.8278H111.998V6.51578C111.998 2.91651 109.08 0 105.479 0H6.51992C2.91677 0.000142123 0 2.91651 0 6.51578V29.5409C0 34.864 1.34275 36.0582 4.9459 36.0582L12.1935 35.9889C12.152 35.6852 12.1935 35.3919 12.1935 35.0778C12.1935 31.2994 14.4516 27.5781 19.296 27.5781C24.1403 27.5781 26.3623 31.3557 26.3623 35.134C26.3623 35.4481 26.3329 35.7545 26.293 36.0582H87.6129C87.5714 35.7545 87.6129 35.3919 87.6129 35.0778C87.6129 31.2994 90.3226 27.7889 94.8387 27.7889C98.9032 27.7889 101.79 31.3557 101.79 35.134C101.79 35.4481 101.763 35.7545 101.721 36.0582H112V33.3427H109.719C109.359 33.3427 109.066 33.0509 109.066 32.6919V27.4785C109.064 27.1177 109.357 26.8278 109.718 26.8278ZM53.4088 3.36747V19.0059H35.1323V3.36747H53.4088ZM12.7151 19.0059H10.3236C4.83596 19.0059 4.9459 15.7492 4.9459 15.3901V4.01868C4.9459 3.65911 5.2369 3.36747 5.59673 3.36747H12.7151H18.2577V19.0059H12.7151ZM19.8131 19.0059V3.36747H33.5755V19.0059H19.8131ZM73.536 19.0059H54.9633V3.36747H73.536V19.0059ZM91.9941 18.3537C91.9941 18.7149 91.7012 19.0059 91.3437 19.0059H75.0489V3.36747H91.3437C91.7014 3.36747 91.9941 3.65911 91.9941 4.01868V18.3537ZM109.106 22.5908C109.106 22.5908 100.756 22.8564 97.573 22.126C94.3913 21.3965 93.9512 18.5185 93.9512 18.5185V6.66757V3.31318H105.748C107.601 3.31318 109.105 4.81514 109.105 6.66757L109.106 22.5908Z" fill="#393939"/>
<path d="M111.549 26.4219V33.7108" stroke="#393939"/>
</svg>
