<svg width="35" height="17" viewBox="0 0 35 17" fill="none" xmlns="http://www.w3.org/2000/svg">
<path d="M34.7375 6.31054L32.9351 2.3256C32.2852 0.910245 30.8734 0.00228249 29.3182 0H3.45921C0.665666 0.000140519 0 0.173701 0 3.46523V12.1244C0 13.1732 0.848796 14.0234 1.89583 14.0234H4.725C5.00117 15.3854 6.19609 16.3636 7.58333 16.3636C8.97057 16.3636 10.1655 15.3854 10.4417 14.0234H24.5583C24.8345 15.3854 26.0294 16.3636 27.4167 16.3636C28.8039 16.3636 29.9988 15.3854 30.275 14.0234H33.3785C34.0988 14.0232 34.7329 13.5473 34.936 12.8548C34.9781 12.7065 34.9995 12.5533 35 12.3992V7.52025C34.9998 7.10279 34.9102 6.69034 34.7375 6.31054ZM2.91667 7.01171C2.59447 7.01171 2.33333 6.75014 2.33333 6.42741V1.75293C2.33333 1.43042 2.59447 1.16862 2.91667 1.16862H7C7.3222 1.16862 7.58333 1.43042 7.58333 1.75293V6.42741C7.58333 6.75014 7.3222 7.01171 7 7.01171H2.91667ZM7.58333 15.192C6.61696 15.192 5.83333 14.4073 5.83333 13.4391C5.83333 12.4711 6.61696 11.6862 7.58333 11.6862C8.54971 11.6862 9.33333 12.4711 9.33333 13.4391C9.3306 14.4062 8.54857 15.1893 7.58333 15.192ZM14 6.42741C14 6.75014 13.7389 7.01171 13.4167 7.01171H9.33333C9.01113 7.01171 8.75 6.75014 8.75 6.42741V1.75293C8.75 1.43042 9.01113 1.16862 9.33333 1.16862H13.4167C13.7389 1.16862 14 1.43042 14 1.75293V6.42741ZM20.4167 6.42741C20.4167 6.75014 20.1555 7.01171 19.8333 7.01171H15.75C15.4278 7.01171 15.1667 6.75014 15.1667 6.42741V1.75293C15.1667 1.43042 15.4278 1.16862 15.75 1.16862H19.8333C20.1555 1.16862 20.4167 1.43042 20.4167 1.75293V6.42741ZM22.1667 7.01171C21.8445 7.01171 21.5833 6.75014 21.5833 6.42741V1.75293C21.5833 1.43042 21.8445 1.16862 22.1667 1.16862H26.25C26.5722 1.16862 26.8333 1.43042 26.8333 1.75293V6.42741C26.8333 6.75014 26.5722 7.01171 26.25 7.01171H22.1667ZM27.4167 15.192C26.4503 15.192 25.6667 14.4073 25.6667 13.4391C25.6667 12.4711 26.4503 11.6862 27.4167 11.6862C28.383 11.6862 29.1667 12.4711 29.1667 13.4391C29.1639 14.4062 28.3819 15.1893 27.4167 15.192ZM28.5366 7.01171C28.2342 6.98478 28.0018 6.73166 28 6.42741V1.74791C28 1.42814 28.2589 1.16862 28.5783 1.16862H29.3182C30.4163 1.17159 31.4132 1.81204 31.8735 2.81062L33.6759 6.79557C33.77 7.00327 33.8217 7.22786 33.8276 7.45565L28.5366 7.01171Z" fill="#1A1A1A"/>
</svg>
