<svg width="19" height="20" viewBox="0 0 19 20" fill="none" xmlns="http://www.w3.org/2000/svg">
<path d="M11.6138 15.6114C11.6134 15.6114 11.613 15.6114 11.6123 15.6114C11.4609 15.6114 11.3202 15.5311 11.2447 15.4014L9.43359 12.2832V19.9975L13.2871 18.8364V13.1211L11.9818 15.3996C11.9059 15.53 11.766 15.6111 11.6138 15.6114Z" fill="#8AC74F"/>
<path d="M0.00390625 19.9998L3.86611 18.8384V4.28125L0.00390625 4.99875V19.9998Z" fill="#8AC74F"/>
<path d="M5.77229 4.47589L4.7207 4.28125V18.8384L8.5764 19.9973V10.8073L6.64421 7.48125C6.62144 7.45196 5.74807 6.17982 5.77229 4.47589Z" fill="#8AC74F"/>
<path d="M16.4223 5.58179C16.5047 5.225 16.5567 4.82214 16.5379 4.39036C16.4862 3.29286 16.0044 2.28893 15.1061 1.40786C15.0901 1.39536 15.0497 1.35929 15.0045 1.31893C14.5551 0.915357 13.6203 0.0760714 11.4691 0C9.43349 0.0728571 8.60025 0.863929 8.15308 1.28893C8.08729 1.35107 8.03053 1.40464 7.97992 1.4475C7.17054 2.24536 6.7006 3.16643 6.6048 4.1675C6.56251 4.61857 6.60372 5.04286 6.68216 5.42214C6.89183 6.37179 7.35382 7.02607 7.36032 7.03536L9.36661 10.4854C9.36878 10.4889 9.37348 10.4971 9.37782 10.5061C9.37818 10.5068 9.37818 10.5068 9.37854 10.5071L11.6079 14.3468L13.3402 11.325C13.3434 11.3186 13.3506 11.3086 13.3568 11.2989C13.3575 11.2979 13.3579 11.2968 13.3582 11.2957L15.7896 7.05321C15.8074 7.02679 16.2104 6.4425 16.4223 5.58179ZM14.0212 6.85786C14.0111 6.87 14.0002 6.88143 13.989 6.89321C13.3723 7.56214 12.4957 7.94571 11.5808 7.94571C10.3408 7.94571 9.19165 7.23321 8.65303 6.13L8.65375 6.12964C8.64869 6.12 8.64399 6.10929 8.63965 6.09929C8.43143 5.67357 8.32624 5.21143 8.32624 4.72571C8.32624 4.66607 8.32696 4.61179 8.33238 4.55714C8.40829 2.85786 9.83583 1.51 11.5808 1.51C12.9975 1.51 14.2782 2.44036 14.6954 3.77321C14.7916 4.09071 14.84 4.41 14.84 4.72571C14.84 5.51036 14.5494 6.26714 14.0212 6.85786Z" fill="#8AC74F"/>
<path d="M17.3512 4.87793C17.2619 6.37114 16.5462 7.44329 16.5122 7.49257L14.1426 11.6304V18.8365L18.0048 20.0004V4.99864L17.3512 4.87793Z" fill="#8AC74F"/>
</svg>
