<svg width="21" height="18" viewBox="0 0 21 18" fill="none" xmlns="http://www.w3.org/2000/svg">
<path d="M13.9105 4.0384C12.6913 4.0384 11.5431 4.34344 10.5397 4.87944C9.92172 4.53865 9.24832 4.28404 8.53409 4.13772L8.91643 4.00721C9.01117 3.97488 9.12801 3.87894 9.1773 3.7928L10.5256 1.42957C10.5748 1.34343 10.5386 1.24526 10.4446 1.21029L7.35001 0.0574473C7.29693 0.037505 7.25071 0.019844 7.22167 0.00855514L7.20561 0.00253704C7.19683 -0.000845681 7.18233 -0.000845681 7.17354 0.00253704C7.16475 0.00591977 7.15752 0.00855514 7.15752 0.00855514C7.12848 0.020198 7.08187 0.0378984 7.02843 0.0578407L3.93418 1.21029C3.84023 1.24529 3.80392 1.34343 3.85321 1.42957L5.2019 3.79732C5.25119 3.88346 5.36766 3.97936 5.46277 4.01173L5.77177 4.11668C2.49039 4.7271 0 7.5665 0 10.972C0 14.8209 3.18017 17.9526 7.08914 17.9526C8.30833 17.9526 9.45654 17.6476 10.4599 17.1116C11.4824 17.6754 12.6581 18 13.9109 18C17.8198 18 21 14.8683 21 11.0194C20.9996 7.17009 17.8195 4.0384 13.9105 4.0384ZM12.65 10.972C12.65 12.7395 11.7914 14.3094 10.4675 15.3114C9.17997 14.3075 8.34959 12.7586 8.34959 11.0194C8.34959 9.25192 9.20825 7.68159 10.5321 6.67956C11.8197 7.68348 12.65 9.23241 12.65 10.972ZM7.08914 16.4481C4.02241 16.4481 1.52783 13.9912 1.52783 10.972C1.52783 7.95241 4.02241 5.49553 7.08914 5.49553C7.80912 5.49553 8.4955 5.63544 9.12765 5.88183C7.71441 7.15877 6.82176 8.98603 6.82176 11.0194C6.82176 13.0166 7.6823 14.8157 9.05239 16.0893C8.4405 16.3172 7.78088 16.4481 7.08914 16.4481ZM13.9105 16.4955C13.1906 16.4955 12.5042 16.3556 11.872 16.1092C13.2853 14.8322 14.1779 13.005 14.1779 10.972C14.1779 8.97478 13.3174 7.17572 11.9473 5.90216C12.5588 5.67387 13.2188 5.54297 13.9105 5.54297C16.9769 5.54297 19.4718 7.99949 19.4718 11.0194C19.4718 14.0386 16.9769 16.4955 13.9105 16.4955Z" fill="white"/>
</svg>
