<svg width="31" height="25" viewBox="0 0 31 25" fill="none" xmlns="http://www.w3.org/2000/svg">
<path d="M30.3542 8.42853H29.3208L28.0292 0.540513C27.9646 0.209083 27.6417 -0.0560605 27.2542 0.0102253L0.516667 4.65024C0.322917 4.65024 0.19375 4.78281 0.129167 4.91538C-9.62367e-09 5.04795 0 5.24681 0 5.37938L2.45417 20.4263C2.45417 20.5588 2.51875 20.6251 2.58333 20.6914V24.3371C2.58333 24.7349 2.84167 25 3.22917 25H30.3542C30.7417 25 31 24.7349 31 24.3371V9.09139C31 8.75996 30.7417 8.42853 30.3542 8.42853ZM28.0292 8.42853H8.07292L7.49167 4.78281L26.8667 1.46851L28.0292 8.42853ZM1.42083 5.84338L6.2 5.04795L6.78125 8.49482H3.22917C2.84167 8.49482 2.58333 8.75996 2.58333 9.15768V13.2011L1.42083 5.84338ZM3.875 9.75425H8.71875V23.6743H3.875V9.75425ZM29.7083 23.7406H10.0104V9.82054H29.7083V23.7406Z" transform="translate(31) scale(-1 1)" fill="#1A1A1A"/>
<path d="M0.645833 1.32572H14.2083C14.5958 1.32572 14.8542 1.06057 14.8542 0.662859C14.8542 0.265143 14.5958 0 14.2083 0H0.645833C0.258333 0 0 0.265143 0 0.662859C0 0.994288 0.258333 1.32572 0.645833 1.32572Z" transform="translate(18.2129 12.0081) scale(-1 1)" fill="#1A1A1A"/>
<path d="M0.645833 1.32572H14.2083C14.5958 1.32572 14.8542 1.06057 14.8542 0.662859C14.8542 0.265143 14.5958 0 14.2083 0H0.645833C0.258333 0 0 0.265143 0 0.662859C0 0.994288 0.258333 1.32572 0.645833 1.32572Z" transform="translate(18.2129 16.3167) scale(-1 1)" fill="#1A1A1A"/>
<path d="M4.00417 0H0.645833C0.258333 0 0 0.265143 0 0.662859C0 1.06057 0.258333 1.32572 0.645833 1.32572H4.00417C4.39167 1.32572 4.65 1.06057 4.65 0.662859C4.65 0.265143 4.32708 0 4.00417 0Z" transform="translate(18.2129 21.3542) scale(-1 1)" fill="#1A1A1A"/>
<path d="M3.42292 0H0.645833C0.258333 0 0 0.265143 0 0.662859C0 1.06057 0.258333 1.32572 0.645833 1.32572H3.42292C3.81042 1.32572 4.06875 1.06057 4.06875 0.662859C4.06875 0.265143 3.81042 0 3.42292 0Z" transform="translate(7.42773 21.3542) scale(-1 1)" fill="#1A1A1A"/>
<path d="M0.655796 3.65595C0.720379 3.65595 0.72038 3.65595 0.784963 3.65595L14.2183 1.33594C14.5412 1.26966 14.7995 0.938228 14.735 0.540513C14.6704 0.209083 14.3475 -0.0560605 13.96 0.0102253L0.52663 2.33023C0.203713 2.39652 -0.0546207 2.72795 0.00996268 3.12566C0.074546 3.45709 0.397463 3.65595 0.655796 3.65595Z" transform="translate(20.418 4.04346) scale(-1 1)" fill="#1A1A1A"/>
</svg>
