<svg width="20" height="22" viewBox="0 0 20 22" fill="none" xmlns="http://www.w3.org/2000/svg">
<path d="M19.9762 6.16611C19.9762 5.84833 19.8335 5.60389 19.5719 5.43278C19.5244 5.40833 19.453 5.35944 19.4055 5.335C19.4055 4.52833 19.3817 3.69722 19.3341 2.86611C19.239 0.959444 18.264 0.0305556 16.4328 0.00611112C14.8395 0.00611112 13.2461 0.00611112 11.6528 0.00611112C9.06064 0.00611112 6.49227 -0.0183333 3.90012 0.0305555C1.522 0.0794444 0.570749 1.10611 0.570749 3.55056C0.570749 4.13722 0.570749 4.72389 0.570749 5.335C0.428062 5.38389 0.309156 5.50611 0.214031 5.62833C0.0475623 5.775 0 5.995 0 6.23944C0 7.36389 0 8.48833 0 9.63722C0 9.97945 0.118906 10.2483 0.404281 10.4194C0.475624 10.4683 0.523187 10.4928 0.59453 10.5172C0.59453 12.9372 0.59453 15.3328 0.59453 17.7528C0.59453 18.095 0.546968 18.4861 0.713436 18.7794C1.07015 19.3661 0.998811 20.0017 1.02259 20.6372C1.04637 21.4194 1.54578 21.9572 2.30678 21.9817C2.85375 22.0061 3.40071 22.0061 3.94768 21.9817C4.73246 21.9572 5.23187 21.4928 5.25565 20.6861C5.27943 20.3439 5.32699 20.2217 5.70749 20.2217C8.56124 20.2461 11.4388 20.2461 14.2925 20.2217C14.6492 20.2217 14.7444 20.3194 14.7444 20.6861C14.7681 21.5417 15.2675 21.9817 16.0999 21.9817C16.5755 21.9817 17.0511 21.9817 17.5268 21.9817C18.5018 21.9817 18.9774 21.4683 19.0012 20.4661C19.0012 20.075 18.8823 19.635 19.0963 19.2683C19.3579 18.7794 19.4293 18.2906 19.4293 17.7528C19.4293 15.4794 19.4293 13.2061 19.4293 10.5172C19.5957 10.4928 19.7384 10.3461 19.8335 10.1994C19.9524 10.0528 20 9.85722 20 9.66167C19.9762 8.51278 19.9762 7.33944 19.9762 6.16611ZM6.01665 1.76611C7.44352 1.76611 8.87039 1.76611 10.2735 1.76611C11.6528 1.76611 13.0321 1.76611 14.4352 1.76611C15.0535 1.76611 15.1249 1.86389 15.1486 2.59722C15.1486 3.40389 15.0773 3.52611 14.4828 3.52611C11.6528 3.52611 8.82283 3.52611 6.01665 3.52611C5.39834 3.52611 5.27943 3.37944 5.27943 2.64611C5.25565 1.91278 5.37455 1.76611 6.01665 1.76611ZM4.23306 18.0461C3.40071 18.0461 2.71106 17.3372 2.71106 16.4817C2.73484 15.6506 3.42449 14.9661 4.20927 14.9661C5.04162 14.9661 5.65993 15.6261 5.65993 16.5061C5.68371 17.3617 5.04162 18.0461 4.23306 18.0461ZM4.01902 12.7661C3.11534 12.7661 2.71106 12.3261 2.71106 11.3728C2.71106 9.66167 2.71106 7.95056 2.71106 6.23944C2.71106 5.28611 3.09156 4.895 4.01902 4.895C6.01665 4.895 7.99049 4.895 9.98811 4.895C11.9382 4.895 13.8882 4.895 15.8383 4.895C16.8847 4.895 17.2414 5.26167 17.2414 6.31278C17.2414 7.95056 17.2414 9.58833 17.2414 11.2261C17.2414 12.2039 16.7182 12.7417 15.7669 12.7661C11.8668 12.7661 7.94292 12.7661 4.01902 12.7661ZM15.7669 18.0461C14.9584 18.0461 14.3163 17.3861 14.2925 16.5306C14.2925 15.6506 14.9108 14.9906 15.7432 14.9906C16.5755 14.9906 17.2652 15.6994 17.2652 16.555C17.2414 17.3372 16.5755 18.0461 15.7669 18.0461Z" fill="#A3D473"/>
</svg>
