<svg width="31" height="33" viewBox="0 0 31 33" fill="none" xmlns="http://www.w3.org/2000/svg">
<path d="M13.832 12.2635C13.5431 10.4821 12.2429 9.17131 10.5094 8.73438C9.82317 9.20492 8.95638 9.50743 8.01737 9.50743C7.07835 9.50743 6.21159 9.23853 5.52539 8.73438C3.79183 9.17131 2.49165 10.4821 2.20273 12.2635C2.02215 13.3054 1.58875 16.0614 1.33594 17.5403C1.51652 17.5067 1.6971 17.5067 1.87767 17.5067C2.59999 17.5067 3.25008 17.7756 3.7557 18.2125C3.9724 16.8345 4.47802 13.7423 4.6586 12.5996V12.566L4.80307 20.1955L3.7196 31.2197C3.64736 32.0263 4.29745 32.7658 5.16423 32.833C5.20034 32.833 5.27256 32.833 5.30868 32.833C6.13934 32.833 6.82555 32.2616 6.89778 31.4886L7.94515 20.666H8.0535L9.10084 31.4886C9.17307 32.2952 9.96764 32.9002 10.8344 32.833C11.7012 32.7658 12.3513 32.0263 12.2791 31.2197L11.1956 20.1955L11.34 12.566V12.5996C11.5567 14.0784 12.3513 18.8511 12.3874 18.8847C12.4957 19.4561 13.0014 19.8594 13.6153 19.8594C13.6876 19.8594 13.7237 19.8594 13.7959 19.8594C14.4821 19.7586 14.9155 19.1872 14.8433 18.5486C14.8433 18.515 14.0848 13.7423 13.832 12.2635Z" fill="#A3D473"/>
<path d="M1.8419 18.2803C0.830655 18.2803 0 19.0533 0 19.9944V32.2286C0 32.531 0.288909 32.7999 0.613951 32.7999C0.938994 32.7999 1.22793 32.531 1.22793 32.2286V19.9944C1.22793 19.6583 1.51686 19.423 1.8419 19.423C2.16694 19.423 2.45587 19.6919 2.45587 19.9944C2.45587 20.2969 2.7448 20.5658 3.06985 20.5658C3.39489 20.5658 3.6838 20.2969 3.6838 19.9944C3.71991 19.0533 2.85314 18.2803 1.8419 18.2803Z" fill="#A3D473"/>
<path d="M4.58789 5.57634C4.58789 7.32407 6.10476 8.73569 8.01889 8.73569C9.89692 8.73569 11.4138 7.32407 11.4138 5.57634C11.4138 5.47551 11.4138 5.34107 11.3777 5.24023H4.58789C4.58789 5.34107 4.58789 5.4419 4.58789 5.57634Z" fill="#A3D473"/>
<path d="M3.68337 4.83565H12.3151C12.5318 4.83565 12.7485 4.6676 12.7485 4.43233C12.7485 4.23066 12.5679 4.029 12.3151 4.029H11.0871L10.7982 2.18043C10.6898 1.37378 9.82307 0.869645 8.9924 1.10492L8.41456 1.27297C8.12563 1.34019 7.83671 1.34019 7.5839 1.27297L7.00603 1.10492C6.17537 0.869645 5.30859 1.37378 5.20024 2.18043L4.91132 4.029H3.68337C3.46668 4.029 3.25 4.19705 3.25 4.43233C3.28612 4.6676 3.46668 4.83565 3.68337 4.83565Z" fill="#A3D473"/>
<path d="M25.6902 18.8178L26.0514 12.7679C26.0514 12.8351 26.0875 12.9024 26.0875 12.9696C26.2681 14.146 26.8821 16.9692 27.171 18.28C27.6766 17.8095 28.3628 17.507 29.1212 17.507C29.1574 17.507 29.1935 17.507 29.2296 17.507C28.9407 16.129 28.3989 13.6754 28.2183 12.6671C27.9655 11.0202 26.7376 9.30607 24.8596 8.86914C24.2095 9.27246 23.4149 9.50774 22.5482 9.50774C21.6814 9.50774 20.9229 9.27246 20.2367 8.86914C18.3587 9.33968 17.1308 11.0538 16.878 12.6671C16.6613 14.1123 15.65 18.4817 15.65 18.5153C15.5417 19.0531 15.9028 19.5908 16.4807 19.6917C16.5529 19.6917 16.6252 19.7253 16.6974 19.7253C17.203 19.7253 17.6364 19.3892 17.7448 18.9186C17.7809 18.7506 18.756 14.4485 18.9727 12.9696C18.9727 12.9024 19.0088 12.8351 19.0088 12.7679L19.37 18.8178L16.9863 26.0104C16.7696 26.7162 17.3114 27.422 18.1059 27.422H18.7199L18.3226 31.4553C18.2504 32.1947 18.8282 32.8333 19.6228 32.9005C20.4173 32.9677 21.1035 32.43 21.1758 31.6906L21.573 27.422H23.3066L23.7039 31.6906C23.7761 32.3964 24.3901 32.9005 25.1485 32.9005C25.1846 32.9005 25.2207 32.9005 25.293 32.9005C26.0875 32.8333 26.6654 32.1947 26.5931 31.4553L26.1958 27.422H26.8098C27.6044 27.422 28.1461 26.7162 27.9294 26.0104L25.6902 18.8178Z" fill="#A3D473"/>
<path d="M22.5863 8.73508C24.4643 8.73508 26.0173 7.32344 26.0173 5.5421C26.0173 4.2649 25.1866 3.15577 24.0309 2.65162C24.2115 2.41635 24.2837 2.14745 24.2837 1.84496C24.2837 1.34081 23.8503 0.9375 23.3086 0.9375H21.8278C21.2861 0.9375 20.8527 1.34081 20.8527 1.84496C20.8527 2.14745 20.961 2.41635 21.1055 2.65162C19.9498 3.15577 19.1191 4.2649 19.1191 5.5421C19.1914 7.32344 20.7082 8.73508 22.5863 8.73508Z" fill="#A3D473"/>
<path d="M29.1583 18.2803C28.1471 18.2803 27.3164 19.0533 27.3164 19.9944C27.3164 20.2969 27.6053 20.5658 27.9304 20.5658C28.2554 20.5658 28.5443 20.2969 28.5443 19.9944C28.5443 19.6583 28.8333 19.423 29.1583 19.423C29.4833 19.423 29.7723 19.6919 29.7723 19.9944V32.2286C29.7723 32.531 30.0612 32.7999 30.3863 32.7999C30.7113 32.7999 31.0002 32.531 31.0002 32.2286V19.9944C31.0002 19.0533 30.1695 18.2803 29.1583 18.2803Z" fill="#A3D473"/>
</svg>
