<svg width="30" height="21" viewBox="0 0 30 21" fill="none" xmlns="http://www.w3.org/2000/svg">
<path d="M2.44296 2.6488L10.4894 4.3917C10.5193 4.39806 10.5493 4.4017 10.5802 4.4017C10.6093 4.4017 10.6393 4.39806 10.6684 4.39261L17.6337 2.93155V6.32189L16.7545 10.3632C16.7254 10.4978 16.7563 10.6394 16.8418 10.7478C16.9265 10.8553 17.0506 10.9187 17.1864 10.9187H18.9588C19.0911 10.9187 19.2189 10.8578 19.3029 10.7478C19.3885 10.6405 19.4191 10.5005 19.3902 10.365L18.5172 6.32189V2.74608L18.9722 2.65153C19.1786 2.60789 19.325 2.42059 19.325 2.20421C19.3232 1.98873 19.1751 1.80235 18.9687 1.75962L10.6648 0.0912721C10.6084 0.0812711 10.5502 0.081271 10.4938 0.0930904L2.44737 1.76053C2.24279 1.80326 2.09465 1.98782 2.09377 2.2033C2.092 2.41787 2.23838 2.60425 2.44296 2.6488ZM18.0728 8.45574L18.4079 10.0068H17.7351L18.0728 8.45574Z" fill="#A3D473"/>
<path d="M15.8706 10.0072V8.18889C15.8706 7.77248 15.8706 7.04241 14.9888 6.86512V6.42871C13.7058 6.75329 12.1697 6.94058 10.5798 6.94058C8.98908 6.94058 7.45299 6.75511 6.17086 6.42871V7.00331C5.82167 7.21152 5.28906 7.62156 5.28906 8.18979V10.0082C5.28906 10.671 5.98304 11.1537 6.61969 11.3137C6.73697 14.1158 8.09141 16.827 10.5798 16.827C13.0683 16.827 14.4227 14.1158 14.54 11.3137C15.1775 11.1519 15.8706 10.6691 15.8706 10.0072Z" fill="#A3D473"/>
<path d="M14.9879 4.55303V4.41393L10.8426 5.2831C10.7553 5.3022 10.6662 5.31038 10.5789 5.31038C10.4872 5.31038 10.3964 5.30038 10.3073 5.28129L6.16992 4.38574V5.49403C8.67423 6.17683 12.4818 6.17683 14.9879 5.49494V4.55303Z" fill="#A3D473"/>
<path d="M6.11914 15.226L7.38276 16.1633C7.03004 15.734 6.73375 15.2387 6.49567 14.7041L6.11914 15.226Z" fill="#A3D473"/>
<path d="M9.14453 17.4741L10.581 18.5414L12.0359 17.4668C11.595 17.6377 11.1101 17.735 10.5801 17.735C10.0572 17.735 9.58014 17.6414 9.14453 17.4741Z" fill="#A3D473"/>
<path d="M21.1614 20.0078C21.1614 19.9758 21.1596 19.9462 21.1526 19.9133C20.9974 17.3939 18.9119 15.4619 16.2771 15.4619H16.272L10.8373 19.4696C10.7606 19.5269 10.6706 19.555 10.5807 19.555C10.4899 19.555 10.3999 19.525 10.3232 19.4678L4.92748 15.4619H4.84988C2.18686 15.4619 0.155196 17.3585 0.00881797 19.9185C0.00352719 19.9471 0 19.976 0 20.0078V20.4624C0 20.7124 0.197523 20.917 0.440899 20.917H20.7222C20.9647 20.917 21.1631 20.7124 21.1631 20.4624V20.3435C21.1746 20.3024 21.1808 20.2597 21.1808 20.2153C21.1808 20.1699 21.1746 20.1269 21.1631 20.0862L21.1614 20.0078Z" fill="#A3D473"/>
<path d="M15.0307 15.2574L14.655 14.7246C14.4108 15.2719 14.1074 15.7727 13.7441 16.2057L15.0307 15.2574Z" fill="#A3D473"/>
<path d="M20.2072 2.19943C20.209 2.75494 19.8816 3.24954 19.3977 3.46138V4.40147C19.4268 4.40147 19.4574 4.39784 19.4876 4.39238L26.4521 2.93133V6.32166L25.5729 10.363C25.5438 10.4975 25.5747 10.6391 25.6602 10.7476C25.7449 10.8551 25.869 10.9185 26.0048 10.9185H27.7772C27.9095 10.9185 28.0373 10.8576 28.1213 10.7476C28.2069 10.6403 28.2375 10.5003 28.2086 10.3648L27.3356 6.32166V2.74585L27.7906 2.6513C27.997 2.60766 28.1434 2.42037 28.1434 2.20398C28.1416 1.9885 27.9935 1.80212 27.7871 1.75939L19.4832 0.0919528C19.4277 0.0810426 19.3684 0.0810427 19.3122 0.0937712L17.3281 0.503812L19.1387 0.866575C19.7546 0.990224 20.2037 1.55028 20.2072 2.19943ZM26.8912 8.45551L27.2263 10.0066H26.5535L26.8912 8.45551Z" fill="#A3D473"/>
<path d="M23.8074 4.55219V4.41309L19.6628 5.28226C19.5755 5.30136 19.4866 5.30954 19.3984 5.30954V6.00506C20.9777 6.00506 22.5553 5.83414 23.8074 5.49319V4.55219Z" fill="#A3D473"/>
<path d="M29.9792 20.0894V20.0078C29.9792 19.9758 29.9774 19.9462 29.9704 19.9133C29.8152 17.3939 27.7297 15.4619 25.0949 15.4619H25.0899L21.6074 18.0292C21.8369 18.5784 21.9868 19.1766 22.0298 19.8085C22.0388 19.8685 22.0439 19.9312 22.0457 19.9912C22.0574 20.0658 22.0633 20.1403 22.0633 20.2149C22.0633 20.2894 22.0574 20.364 22.0457 20.4385V20.4604C22.0457 20.6202 22.013 20.7711 21.9648 20.915H29.5409C29.7834 20.915 29.9818 20.7095 29.9818 20.4604V20.3413C29.9935 20.3003 29.9995 20.2549 29.9995 20.2106C29.9986 20.1733 29.9915 20.1283 29.9792 20.0894Z" fill="#A3D473"/>
<path d="M24.6875 10.0072V8.18889C24.6875 7.77248 24.6875 7.04241 23.8057 6.86512V6.42871C22.5648 6.7442 21.0862 6.9224 19.5517 6.93603L20.2483 10.1673C20.3356 10.5737 20.2406 10.9928 19.9891 11.3156C19.7351 11.6401 19.3588 11.8274 18.9576 11.8274H17.1852C16.8018 11.8274 16.4498 11.6565 16.1984 11.3637C15.9965 11.581 15.7485 11.762 15.4824 11.9056C15.581 12.8575 15.8281 13.7751 16.2125 14.555H16.2681C18.0608 14.555 19.6419 15.3205 20.6956 16.5479C22.3569 15.7878 23.2616 13.5803 23.3578 11.3131C23.9944 11.1519 24.6875 10.6691 24.6875 10.0072Z" fill="#A3D473"/>
<path d="M23.849 15.2574L23.4736 14.7246C23.2294 15.2719 22.926 15.7727 22.5625 16.2057L23.849 15.2574Z" fill="#A3D473"/>
</svg>
