<svg width="17" height="19" viewBox="0 0 17 19" fill="none" xmlns="http://www.w3.org/2000/svg">
<path d="M16.9798 5.32528C16.9798 5.05083 16.8585 4.83972 16.6361 4.69194C16.5957 4.67083 16.5351 4.62861 16.4946 4.6075C16.4946 3.91083 16.4744 3.19306 16.434 2.47528C16.3532 0.828611 15.5244 0.0263889 13.9679 0.00527779C12.6136 0.00527779 11.2592 0.00527779 9.90488 0.00527779C7.70155 0.00527779 5.51843 -0.0158333 3.3151 0.0263889C1.2937 0.0686111 0.485137 0.955278 0.485137 3.06639C0.485137 3.57306 0.485137 4.07972 0.485137 4.6075C0.363852 4.64972 0.262782 4.75528 0.181926 4.86083C0.040428 4.9875 0 5.1775 0 5.38861C0 6.35972 0 7.33083 0 8.32306C0 8.61861 0.10107 8.85083 0.343638 8.99861C0.404281 9.04083 0.444709 9.06194 0.505351 9.08306C0.505351 11.1731 0.505351 13.2419 0.505351 15.3319C0.505351 15.6275 0.464923 15.9653 0.606421 16.2186C0.909631 16.7253 0.848989 17.2742 0.869203 17.8231C0.889417 18.4986 1.31391 18.9631 1.96076 18.9842C2.42568 19.0053 2.89061 19.0053 3.35553 18.9842C4.02259 18.9631 4.44709 18.5619 4.4673 17.8653C4.48751 17.5697 4.52794 17.4642 4.85137 17.4642C7.27705 17.4853 9.72295 17.4853 12.1486 17.4642C12.4518 17.4642 12.5327 17.5486 12.5327 17.8653C12.5529 18.6042 12.9774 18.9842 13.6849 18.9842C14.0892 18.9842 14.4935 18.9842 14.8977 18.9842C15.7265 18.9842 16.1308 18.5408 16.151 17.6753C16.151 17.3375 16.0499 16.9575 16.2319 16.6408C16.4542 16.2186 16.5149 15.7964 16.5149 15.3319C16.5149 13.3686 16.5149 11.4053 16.5149 9.08306C16.6564 9.06194 16.7776 8.93528 16.8585 8.80861C16.9596 8.68194 17 8.51306 17 8.34417C16.9798 7.35194 16.9798 6.33861 16.9798 5.32528ZM5.11415 1.52528C6.32699 1.52528 7.53983 1.52528 8.73246 1.52528C9.90488 1.52528 11.0773 1.52528 12.2699 1.52528C12.7955 1.52528 12.8561 1.60972 12.8763 2.24306C12.8763 2.93972 12.8157 3.04528 12.3103 3.04528C9.90488 3.04528 7.49941 3.04528 5.11415 3.04528C4.58858 3.04528 4.48751 2.91861 4.48751 2.28528C4.4673 1.65194 4.56837 1.52528 5.11415 1.52528ZM3.5981 15.5853C2.89061 15.5853 2.3044 14.9731 2.3044 14.2342C2.32461 13.5164 2.91082 12.9253 3.57788 12.9253C4.28537 12.9253 4.81094 13.4953 4.81094 14.2553C4.83115 14.9942 4.28537 15.5853 3.5981 15.5853ZM3.41617 11.0253C2.64804 11.0253 2.3044 10.6453 2.3044 9.82195C2.3044 8.34417 2.3044 6.86639 2.3044 5.38861C2.3044 4.56528 2.62782 4.2275 3.41617 4.2275C5.11415 4.2275 6.79191 4.2275 8.48989 4.2275C10.1474 4.2275 11.805 4.2275 13.4625 4.2275C14.352 4.2275 14.6552 4.54417 14.6552 5.45194C14.6552 6.86639 14.6552 8.28083 14.6552 9.69528C14.6552 10.5397 14.2105 11.0042 13.4019 11.0253C10.0868 11.0253 6.75149 11.0253 3.41617 11.0253ZM13.4019 15.5853C12.7146 15.5853 12.1688 15.0153 12.1486 14.2764C12.1486 13.5164 12.6742 12.9464 13.3817 12.9464C14.0892 12.9464 14.6754 13.5586 14.6754 14.2975C14.6552 14.9731 14.0892 15.5853 13.4019 15.5853Z" fill="white"/>
</svg>
