<svg width="19" height="18" viewBox="0 0 19 18" fill="none" xmlns="http://www.w3.org/2000/svg">
<path d="M18.3817 4.12018C19.2656 3.11764 19.1953 1.66761 18.2126 0.734819C17.2491 -0.180036 15.6892 -0.248507 14.6477 0.573582L10.9722 3.15894C10.7423 3.32075 10.4489 3.38383 10.1682 3.33219L3.88888 2.17703C2.55119 1.93093 1.2262 2.67355 0.807228 3.90465L0.765908 4.02604C0.644554 4.38275 0.802063 4.77153 1.14402 4.95901L6.35658 7.81724L3.48256 11.2374L3.24944 11.1728C2.34412 10.922 1.38552 11.1302 0.685362 11.7299L0.276536 12.0801C0.106044 12.2261 0.00618729 12.4322 0.000277781 12.65C-0.00563173 12.8679 0.0829645 13.0786 0.24536 13.2326L5.02178 17.7671C5.17906 17.9164 5.39217 18 5.61399 18C5.62115 18 5.62841 17.9999 5.63558 17.9997C5.86512 17.9941 6.08219 17.8993 6.23593 17.7374L6.60474 17.3494C7.23645 16.6846 7.45585 15.7746 7.19159 14.9152L7.12352 14.6939L10.7272 11.9647L13.7635 16.9397C13.9612 17.2637 14.37 17.4128 14.7457 17.2977L14.8735 17.2585C16.1703 16.8607 16.9527 15.603 16.6934 14.3329L15.4766 8.37172C15.4221 8.1049 15.4886 7.82665 15.6591 7.60825L18.3817 4.12018ZM13.8322 8.67444L15.049 14.6357C15.112 14.9445 15.0127 15.2515 14.8036 15.4718L11.9602 10.8126C11.7699 10.5009 11.447 10.2839 11.074 10.2172C10.7012 10.1506 10.3171 10.2411 10.0203 10.4658L5.63986 13.7834C5.37426 13.9846 5.26295 14.3181 5.35816 14.6278L5.5836 15.3609C5.6514 15.5812 5.6353 15.8104 5.54377 16.0136L2.09252 12.7372C2.30662 12.6502 2.54798 12.635 2.78007 12.6994L3.55236 12.9134C3.87841 13.0038 4.22991 12.8981 4.44181 12.646L7.93582 8.48798C8.17271 8.20611 8.2681 7.84127 8.19761 7.48699C8.12702 7.13266 7.89799 6.82596 7.56901 6.64555L2.69027 3.97038C2.92223 3.77244 3.2452 3.67857 3.57009 3.7382L9.84939 4.89337C10.5904 5.02965 11.3632 4.8632 11.9695 4.43665L15.6656 1.8368C15.6808 1.82606 15.6956 1.81489 15.7101 1.80318C16.0914 1.49489 16.6703 1.51958 17.0281 1.85928C17.399 2.21144 17.4246 2.7369 17.0889 3.10876C17.076 3.12303 17.0636 3.13774 17.0518 3.15285L14.3133 6.66159C13.864 7.23736 13.6886 7.97096 13.8322 8.67444Z" fill="white"/>
</svg>
